Phase 0: Physician Analysis Using NPI API and Patient-Facing Directory
…
## Rows: 656 Columns: 17
## ── Column specification ────────────────────────────────────────────────────────
## Delimiter: ","
## chr (15): name, member_status, all_address, address, academic, practice_spec...
## dbl  (2): year_active_fellow, aaos_website_master_id
## 
## ℹ Use `spec()` to retrieve the full column specification for this data.
## ℹ Specify the column types or set `show_col_types = FALSE` to quiet this message.

## # A tibble: 656 × 17
##    name            member_status year_active_fellow all_address address academic
##    <chr>           <chr>                      <dbl> <chr>       <chr>   <chr>   
##  1 Erik T Bendiks… Active Fellow               2008 university… univer… Academic
##  2 Thomas P Ryan,… Active Fellow               2007 Health Par… Health… Academic
##  3 Beck Deal McAl… Active Fellow               2016 Wake Fores… Wake F… Academic
##  4 Hubert Lee Goo… Active Fellow               2006 Carolina S… Caroli… Academic
##  5 James Joseph H… Active Fellow               1997 7 Vanderbi… 7 Vand… Academic
##  6 Sergio Andres … Active Fellow               2009 Mission Sp… Missio… Academic
##  7 Shyam M Shridh… Active Fellow               2013 University… Univer… Academic
##  8 Evalina L Burg… Active Fellow               2008 University… Univer… Academic
##  9 Samuel E Smith… Active Fellow               1994 University… Univer… Academic
## 10 Joseph Pashko … Active Fellow               2017 University… Univer… Academic
## # ℹ 646 more rows
## # ℹ 11 more variables: practice_specialty <chr>, first <chr>, middle <chr>,
## #   last <chr>, degree <chr>, phone <chr>, state <chr>, zip <chr>,
## #   zip_code <chr>, Division <chr>, aaos_website_master_id <dbl>
…
