Taxonomy Codes for Healthcare Providers — taxonomy • tyler
…
# Filter for Obstetricians and Gynecologists
obgyn_taxonomy <- taxonomy %>%
  dplyr::filter(grepl("Obstetrics|Gynecology", Classification, ignore.case = TRUE))

# Count the number of unique classifications
dplyr::count(taxonomy, Classification)
#> # A tibble: 241 × 2
#>    Classification                         n
#>    <chr>                              <int>
#>  1 Acupuncturist                          1
#>  2 Adult Companion                        1
#>  3 Advanced Practice Dental Therapist     1
#>  4 Advanced Practice Midwife              1
#>  5 Air Carrier                            1
#>  6 Allergy & Immunology                   3
#>  7 Alzheimer Center (Dementia Center)     1
#>  8 Ambulance                              4
#>  9 Anaplastologist                        1
#> 10 Anesthesiologist Assistant             1
#> # ℹ 231 more rows
…
