City and State to Latitude and Longitude — cityStateToLatLong • tyler
…
# View the first few rows
head(cityStateToLatLong)
#> # A tibble: 6 × 4
#>   state   city       latitude longitude
#>   <chr>   <chr>         <dbl>     <dbl>
#> 1 Alabama Abanda         33.1     -85.5
#> 2 Alabama Abbeville      31.6     -85.3
#> 3 Alabama Adamsville     33.6     -87.0
#> 4 Alabama Addison        34.2     -87.2
#> 5 Alabama Akron          32.9     -87.7
#> 6 Alabama Alabaster      33.2     -86.8

# Filter for cities in Alabama
subset(cityStateToLatLong, state == "Alabama")
#> # A tibble: 593 × 4
#>    state   city           latitude longitude
#>    <chr>   <chr>             <dbl>     <dbl>
#>  1 Alabama Abanda             33.1     -85.5
#>  2 Alabama Abbeville          31.6     -85.3
#>  3 Alabama Adamsville         33.6     -87.0
#>  4 Alabama Addison            34.2     -87.2
#>  5 Alabama Akron              32.9     -87.7
#>  6 Alabama Alabaster          33.2     -86.8
#>  7 Alabama Albertville        34.3     -86.2
#>  8 Alabama Alexander City     32.9     -85.9
#>  9 Alabama Alexandria         33.8     -85.9
#> 10 Alabama Aliceville         33.1     -88.2
#> # ℹ 583 more rows
…
